Dinâmica florestal com R
…
Dados de parcelas florestais permanentes

Começamos carregando os dados na forma de objetos no formato Rdata.

load(file = "data/data_paracou_p6.RData")
dt_P6

# A tibble: 127,732 × 13
   Forest   Plot PlotArea SubPlot idTree    Xutm    Yutm Family    Genus Species
   <chr>   <dbl>    <dbl>   <dbl>  <dbl>   <dbl>   <dbl> <chr>     <chr> <chr>  
 1 Paracou     6     6.25       1 100621 286421. 583171. Euphorbi… Sand… guyane…
 2 Paracou     6     6.25       1 100621 286421. 583171. Euphorbi… Sand… guyane…
 3 Paracou     6     6.25       1 100621 286421. 583171. Euphorbi… Sand… guyane…
 4 Paracou     6     6.25       1 100621 286421. 583171. Euphorbi… Sand… guyane…
 5 Paracou     6     6.25       1 100621 286421. 583171. Euphorbi… Sand… guyane…
 6 Paracou     6     6.25       1 100621 286421. 583171. Euphorbi… Sand… guyane…
 7 Paracou     6     6.25       1 100621 286421. 583171. Euphorbi… Sand… guyane…
 8 Paracou     6     6.25       1 100621 286421. 583171. Euphorbi… Sand… guyane…
 9 Paracou     6     6.25       1 100621 286421. 583171. Euphorbi… Sand… guyane…
10 Paracou     6     6.25       1 100621 286421. 583171. Euphorbi… Sand… guyane…
# ℹ 127,722 more rows
# ℹ 3 more variables: CensusYear <dbl>, CodeAlive <dbl>, CircCorr <dbl>
…
CodeAlive: A árvore está viva (1) ou morta (0)?

CircCorr: Circunferência (cm) da árvore no ponto de medição

Dados de características funcionais

Vamos usar os dados das características funcionais das árvores da Guiana Francesa obtidos na base de dados TRY e compilados no pacote rcontroll.

Esses dados estão disponíveis aqui.

load(file = "data/dt_traits.RData")
dt_traits

# A tibble: 45 × 9
   species                     LMA  Nmass   Pmass   wsg dbhmax  hmax    ah   tlp
   <chr>                     <dbl>  <dbl>   <dbl> <dbl>  <dbl> <dbl> <dbl> <dbl>
 1 Abarema_jupunba           110.  0.0232 5.7 e-4 0.576   0.66  50.9 0.308 -1.60
 2 Bocoa_prouacensis          95.6 0.0255 5.05e-4 0.798   0.4   47.9 0.251 -2.08
 3 Brosimum_rubescens         85.8 0.0188 6.88e-4 0.619   0.52  50.9 0.308 -2.28
 4 Carapa_procera            130.  0.0177 6.36e-4 0.55    0.49  41.4 0.187 -1.93
 5 Caryocar_glabrum           84.2 0.0217 8.13e-4 0.612   1.15  48.6 0.275 -1.88
 6 Cecropia_obtusa            69.5 0.0276 1.38e-3 0.388   0.35  50.9 0.308 -1.43
 7 Chrysophyllum_sanguinole… 151.  0.0154 4.69e-4 0.566   0.67  50.9 0.308 -1.45
 8 Conceveiba_guianensis      86.7 0.0235 7.29e-4 0.537   0.23  33.3 0.16  -1.70
 9 Cordia_sagotii            134.  0.0253 5.92e-4 0.443   0.47  36.4 0.139 -1.91
10 Couepia_bracteosa         123.  0.015  4.82e-4 0.784   0.45  50.9 0.308 -2.26
# ℹ 35 more rows
…
